<?xml version="1.0" encoding="UTF-8" standalone="no"?>
<!DOCTYPE svg PUBLIC "-//W3C//DTD SVG 1.1//EN"
 "http://www.w3.org/Graphics/SVG/1.1/DTD/svg11.dtd">
<!-- Generated by graphviz version 2.47.3 (20210619.1520)
 -->
<!-- Title: dependencies Pages: 1 -->
<svg width="2538pt" height="174pt"
 viewBox="0.00 0.00 2538.00 173.80" xmlns="http://www.w3.org/2000/svg" xmlns:xlink="http://www.w3.org/1999/xlink">
<g id="graph0" class="graph" transform="scale(1 1) rotate(0) translate(4 169.8)">
<title>dependencies</title>
<polygon fill="white" stroke="transparent" points="-4,4 -4,-169.8 2534,-169.8 2534,4 -4,4"/>
<text text-anchor="middle" x="1265" y="-8.2" font-family="sans-serif" font-size="14.00">dependencies</text>
<g id="clust1" class="cluster">
<title>cluster_WarehousesModule</title>
<polygon fill="none" stroke="black" stroke-dasharray="1,5" points="8,-32.8 8,-157.8 2522,-157.8 2522,-32.8 8,-32.8"/>
</g>
<g id="clust15" class="cluster">
<title>cluster_WarehousesModule_imports</title>
<polygon fill="none" stroke="black" points="2083,-40.8 2083,-92.8 2514,-92.8 2514,-40.8 2083,-40.8"/>
</g>
<g id="clust2" class="cluster">
<title>cluster_WarehousesModule_declarations</title>
<polygon fill="none" stroke="black" points="16,-40.8 16,-92.8 2075,-92.8 2075,-40.8 16,-40.8"/>
</g>
<!-- AddArticleComponent -->
<g id="node1" class="node">
<title>AddArticleComponent</title>
<polygon fill="#ffffb3" stroke="black" points="2067.31,-84.8 1922.69,-84.8 1922.69,-48.8 2067.31,-48.8 2067.31,-84.8"/>
<text text-anchor="middle" x="1995" y="-62.6" font-family="Times,serif" font-size="14.00">AddArticleComponent</text>
</g>
<!-- WarehousesModule -->
<g id="node13" class="node">
<title>WarehousesModule</title>
<polygon fill="#8dd3c7" stroke="black" points="1418.96,-149.8 1415.96,-153.8 1394.96,-153.8 1391.96,-149.8 1291.04,-149.8 1291.04,-113.8 1418.96,-113.8 1418.96,-149.8"/>
<text text-anchor="middle" x="1355" y="-127.6" font-family="Times,serif" font-size="14.00">WarehousesModule</text>
</g>
<!-- AddArticleComponent&#45;&gt;WarehousesModule -->
<g id="edge1" class="edge">
<title>AddArticleComponent&#45;&gt;WarehousesModule</title>
<path fill="none" stroke="black" d="M1995,-84.91C1995,-104.14 1995,-131.8 1995,-131.8 1995,-131.8 1429,-131.8 1429,-131.8"/>
<polygon fill="black" stroke="black" points="1429,-128.3 1419,-131.8 1429,-135.3 1429,-128.3"/>
</g>
<!-- ArticleContainer -->
<g id="node2" class="node">
<title>ArticleContainer</title>
<polygon fill="#ffffb3" stroke="black" points="1905.08,-84.8 1794.92,-84.8 1794.92,-48.8 1905.08,-48.8 1905.08,-84.8"/>
<text text-anchor="middle" x="1850" y="-62.6" font-family="Times,serif" font-size="14.00">ArticleContainer</text>
</g>
<!-- ArticleContainer&#45;&gt;WarehousesModule -->
<g id="edge2" class="edge">
<title>ArticleContainer&#45;&gt;WarehousesModule</title>
<path fill="none" stroke="black" d="M1850,-85.1C1850,-103.07 1850,-127.8 1850,-127.8 1850,-127.8 1429.21,-127.8 1429.21,-127.8"/>
<polygon fill="black" stroke="black" points="1429.21,-124.3 1419.21,-127.8 1429.21,-131.3 1429.21,-124.3"/>
</g>
<!-- ArticleDetailComponent -->
<g id="node3" class="node">
<title>ArticleDetailComponent</title>
<polygon fill="#ffffb3" stroke="black" points="1777.41,-84.8 1622.59,-84.8 1622.59,-48.8 1777.41,-48.8 1777.41,-84.8"/>
<text text-anchor="middle" x="1700" y="-62.6" font-family="Times,serif" font-size="14.00">ArticleDetailComponent</text>
</g>
<!-- ArticleDetailComponent&#45;&gt;WarehousesModule -->
<g id="edge3" class="edge">
<title>ArticleDetailComponent&#45;&gt;WarehousesModule</title>
<path fill="none" stroke="black" d="M1700,-84.83C1700,-101.2 1700,-122.8 1700,-122.8 1700,-122.8 1429.08,-122.8 1429.08,-122.8"/>
<polygon fill="black" stroke="black" points="1429.08,-119.3 1419.08,-122.8 1429.08,-126.3 1429.08,-119.3"/>
</g>
<!-- ArticleIncomeContainer -->
<g id="node4" class="node">
<title>ArticleIncomeContainer</title>
<polygon fill="#ffffb3" stroke="black" points="1605.06,-84.8 1452.94,-84.8 1452.94,-48.8 1605.06,-48.8 1605.06,-84.8"/>
<text text-anchor="middle" x="1529" y="-62.6" font-family="Times,serif" font-size="14.00">ArticleIncomeContainer</text>
</g>
<!-- ArticleIncomeContainer&#45;&gt;WarehousesModule -->
<g id="edge4" class="edge">
<title>ArticleIncomeContainer&#45;&gt;WarehousesModule</title>
<path fill="none" stroke="black" d="M1529,-84.99C1529,-99.98 1529,-118.8 1529,-118.8 1529,-118.8 1429.3,-118.8 1429.3,-118.8"/>
<polygon fill="black" stroke="black" points="1429.3,-115.3 1419.3,-118.8 1429.3,-122.3 1429.3,-115.3"/>
</g>
<!-- ArticleLayoutComponent -->
<g id="node5" class="node">
<title>ArticleLayoutComponent</title>
<polygon fill="#ffffb3" stroke="black" points="1434.86,-84.8 1275.14,-84.8 1275.14,-48.8 1434.86,-48.8 1434.86,-84.8"/>
<text text-anchor="middle" x="1355" y="-62.6" font-family="Times,serif" font-size="14.00">ArticleLayoutComponent</text>
</g>
<!-- ArticleLayoutComponent&#45;&gt;WarehousesModule -->
<g id="edge5" class="edge">
<title>ArticleLayoutComponent&#45;&gt;WarehousesModule</title>
<path fill="none" stroke="black" d="M1355,-84.91C1355,-84.91 1355,-103.79 1355,-103.79"/>
<polygon fill="black" stroke="black" points="1351.5,-103.79 1355,-113.79 1358.5,-103.79 1351.5,-103.79"/>
</g>
<!-- ArticleMonthDataComponent -->
<g id="node6" class="node">
<title>ArticleMonthDataComponent</title>
<polygon fill="#ffffb3" stroke="black" points="1256.96,-84.8 1073.04,-84.8 1073.04,-48.8 1256.96,-48.8 1256.96,-84.8"/>
<text text-anchor="middle" x="1165" y="-62.6" font-family="Times,serif" font-size="14.00">ArticleMonthDataComponent</text>
</g>
<!-- ArticleMonthDataComponent&#45;&gt;WarehousesModule -->
<g id="edge6" class="edge">
<title>ArticleMonthDataComponent&#45;&gt;WarehousesModule</title>
<path fill="none" stroke="black" d="M1165,-84.99C1165,-99.98 1165,-118.8 1165,-118.8 1165,-118.8 1280.94,-118.8 1280.94,-118.8"/>
<polygon fill="black" stroke="black" points="1280.94,-122.3 1290.94,-118.8 1280.94,-115.3 1280.94,-122.3"/>
</g>
<!-- ArticleOutputContainer -->
<g id="node7" class="node">
<title>ArticleOutputContainer</title>
<polygon fill="#ffffb3" stroke="black" points="1055.46,-84.8 906.54,-84.8 906.54,-48.8 1055.46,-48.8 1055.46,-84.8"/>
<text text-anchor="middle" x="981" y="-62.6" font-family="Times,serif" font-size="14.00">ArticleOutputContainer</text>
</g>
<!-- ArticleOutputContainer&#45;&gt;WarehousesModule -->
<g id="edge7" class="edge">
<title>ArticleOutputContainer&#45;&gt;WarehousesModule</title>
<path fill="none" stroke="black" d="M981,-84.83C981,-101.2 981,-122.8 981,-122.8 981,-122.8 1280.71,-122.8 1280.71,-122.8"/>
<polygon fill="black" stroke="black" points="1280.71,-126.3 1290.71,-122.8 1280.71,-119.3 1280.71,-126.3"/>
</g>
<!-- EditArticleCartComponent -->
<g id="node8" class="node">
<title>EditArticleCartComponent</title>
<polygon fill="#ffffb3" stroke="black" points="888.64,-84.8 721.36,-84.8 721.36,-48.8 888.64,-48.8 888.64,-84.8"/>
<text text-anchor="middle" x="805" y="-62.6" font-family="Times,serif" font-size="14.00">EditArticleCartComponent</text>
</g>
<!-- EditArticleCartComponent&#45;&gt;WarehousesModule -->
<g id="edge8" class="edge">
<title>EditArticleCartComponent&#45;&gt;WarehousesModule</title>
<path fill="none" stroke="black" d="M805,-85.1C805,-103.07 805,-127.8 805,-127.8 805,-127.8 1280.83,-127.8 1280.83,-127.8"/>
<polygon fill="black" stroke="black" points="1280.83,-131.3 1290.83,-127.8 1280.83,-124.3 1280.83,-131.3"/>
</g>
<!-- EditArticleWarehouseComponent -->
<g id="node9" class="node">
<title>EditArticleWarehouseComponent</title>
<polygon fill="#ffffb3" stroke="black" points="703.5,-84.8 496.5,-84.8 496.5,-48.8 703.5,-48.8 703.5,-84.8"/>
<text text-anchor="middle" x="600" y="-62.6" font-family="Times,serif" font-size="14.00">EditArticleWarehouseComponent</text>
</g>
<!-- EditArticleWarehouseComponent&#45;&gt;WarehousesModule -->
<g id="edge9" class="edge">
<title>EditArticleWarehouseComponent&#45;&gt;WarehousesModule</title>
<path fill="none" stroke="black" d="M600,-84.91C600,-104.14 600,-131.8 600,-131.8 600,-131.8 1280.95,-131.8 1280.95,-131.8"/>
<polygon fill="black" stroke="black" points="1280.95,-135.3 1290.95,-131.8 1280.95,-128.3 1280.95,-135.3"/>
</g>
<!-- PresentationContainer -->
<g id="node10" class="node">
<title>PresentationContainer</title>
<polygon fill="#ffffb3" stroke="black" points="479.41,-84.8 338.59,-84.8 338.59,-48.8 479.41,-48.8 479.41,-84.8"/>
<text text-anchor="middle" x="409" y="-62.6" font-family="Times,serif" font-size="14.00">PresentationContainer</text>
</g>
<!-- PresentationContainer&#45;&gt;WarehousesModule -->
<g id="edge10" class="edge">
<title>PresentationContainer&#45;&gt;WarehousesModule</title>
<path fill="none" stroke="black" d="M409,-84.83C409,-105.57 409,-136.8 409,-136.8 409,-136.8 1280.72,-136.8 1280.72,-136.8"/>
<polygon fill="black" stroke="black" points="1280.72,-140.3 1290.72,-136.8 1280.72,-133.3 1280.72,-140.3"/>
</g>
<!-- ShoppingCartComponent -->
<g id="node11" class="node">
<title>ShoppingCartComponent</title>
<polygon fill="#ffffb3" stroke="black" points="320.61,-84.8 161.39,-84.8 161.39,-48.8 320.61,-48.8 320.61,-84.8"/>
<text text-anchor="middle" x="241" y="-62.6" font-family="Times,serif" font-size="14.00">ShoppingCartComponent</text>
</g>
<!-- ShoppingCartComponent&#45;&gt;WarehousesModule -->
<g id="edge11" class="edge">
<title>ShoppingCartComponent&#45;&gt;WarehousesModule</title>
<path fill="none" stroke="black" d="M241,-85.09C241,-107.01 241,-140.8 241,-140.8 241,-140.8 1280.7,-140.8 1280.7,-140.8"/>
<polygon fill="black" stroke="black" points="1280.7,-144.3 1290.7,-140.8 1280.7,-137.3 1280.7,-144.3"/>
</g>
<!-- SuppliesContainer -->
<g id="node12" class="node">
<title>SuppliesContainer</title>
<polygon fill="#ffffb3" stroke="black" points="143.93,-84.8 24.07,-84.8 24.07,-48.8 143.93,-48.8 143.93,-84.8"/>
<text text-anchor="middle" x="84" y="-62.6" font-family="Times,serif" font-size="14.00">SuppliesContainer</text>
</g>
<!-- SuppliesContainer&#45;&gt;WarehousesModule -->
<g id="edge12" class="edge">
<title>SuppliesContainer&#45;&gt;WarehousesModule</title>
<path fill="none" stroke="black" d="M84,-85.12C84,-108.46 84,-145.8 84,-145.8 84,-145.8 1280.66,-145.8 1280.66,-145.8"/>
<polygon fill="black" stroke="black" points="1280.66,-149.3 1290.66,-145.8 1280.66,-142.3 1280.66,-149.3"/>
</g>
<!-- MaterialModule -->
<g id="node14" class="node">
<title>MaterialModule</title>
<polygon fill="#8dd3c7" stroke="black" points="2506.47,-84.8 2503.47,-88.8 2482.47,-88.8 2479.47,-84.8 2399.53,-84.8 2399.53,-48.8 2506.47,-48.8 2506.47,-84.8"/>
<text text-anchor="middle" x="2453" y="-62.6" font-family="Times,serif" font-size="14.00">MaterialModule</text>
</g>
<!-- MaterialModule&#45;&gt;WarehousesModule -->
<g id="edge13" class="edge">
<title>MaterialModule&#45;&gt;WarehousesModule</title>
<path fill="none" stroke="black" d="M2453,-85.12C2453,-108.46 2453,-145.8 2453,-145.8 2453,-145.8 1429.18,-145.8 1429.18,-145.8"/>
<polygon fill="black" stroke="black" points="1429.18,-142.3 1419.18,-145.8 1429.18,-149.3 1429.18,-142.3"/>
</g>
<!-- SharedModule -->
<g id="node15" class="node">
<title>SharedModule</title>
<polygon fill="#8dd3c7" stroke="black" points="2381.42,-84.8 2378.42,-88.8 2357.42,-88.8 2354.42,-84.8 2282.58,-84.8 2282.58,-48.8 2381.42,-48.8 2381.42,-84.8"/>
<text text-anchor="middle" x="2332" y="-62.6" font-family="Times,serif" font-size="14.00">SharedModule</text>
</g>
<!-- SharedModule&#45;&gt;WarehousesModule -->
<g id="edge14" class="edge">
<title>SharedModule&#45;&gt;WarehousesModule</title>
<path fill="none" stroke="black" d="M2332,-85.09C2332,-107.01 2332,-140.8 2332,-140.8 2332,-140.8 1429.1,-140.8 1429.1,-140.8"/>
<polygon fill="black" stroke="black" points="1429.1,-137.3 1419.1,-140.8 1429.1,-144.3 1429.1,-137.3"/>
</g>
<!-- WarehousesRoutingModule -->
<g id="node16" class="node">
<title>WarehousesRoutingModule</title>
<polygon fill="#8dd3c7" stroke="black" points="2264.58,-84.8 2261.58,-88.8 2240.58,-88.8 2237.58,-84.8 2091.42,-84.8 2091.42,-48.8 2264.58,-48.8 2264.58,-84.8"/>
<text text-anchor="middle" x="2178" y="-62.6" font-family="Times,serif" font-size="14.00">WarehousesRoutingModule</text>
</g>
<!-- WarehousesRoutingModule&#45;&gt;WarehousesModule -->
<g id="edge15" class="edge">
<title>WarehousesRoutingModule&#45;&gt;WarehousesModule</title>
<path fill="none" stroke="black" d="M2178,-84.83C2178,-105.57 2178,-136.8 2178,-136.8 2178,-136.8 1429.24,-136.8 1429.24,-136.8"/>
<polygon fill="black" stroke="black" points="1429.24,-133.3 1419.24,-136.8 1429.24,-140.3 1429.24,-133.3"/>
</g>
</g>
</svg>
