<?xml version="1.0" encoding="UTF-8" standalone="no"?>
<!DOCTYPE svg PUBLIC "-//W3C//DTD SVG 1.1//EN"
 "http://www.w3.org/Graphics/SVG/1.1/DTD/svg11.dtd">
<!-- Generated by graphviz version 2.47.3 (20210619.1520)
 -->
<!-- Title: dependencies Pages: 1 -->
<svg width="929pt" height="174pt"
 viewBox="0.00 0.00 929.00 173.80" xmlns="http://www.w3.org/2000/svg" xmlns:xlink="http://www.w3.org/1999/xlink">
<g id="graph0" class="graph" transform="scale(1 1) rotate(0) translate(4 169.8)">
<title>dependencies</title>
<polygon fill="white" stroke="transparent" points="-4,4 -4,-169.8 925,-169.8 925,4 -4,4"/>
<text text-anchor="middle" x="460.5" y="-8.2" font-family="sans-serif" font-size="14.00">dependencies</text>
<g id="clust1" class="cluster">
<title>cluster_SalesDetailModule</title>
<polygon fill="none" stroke="black" stroke-dasharray="1,5" points="8,-32.8 8,-157.8 913,-157.8 913,-32.8 8,-32.8"/>
</g>
<g id="clust2" class="cluster">
<title>cluster_SalesDetailModule_declarations</title>
<polygon fill="none" stroke="black" points="449,-40.8 449,-92.8 905,-92.8 905,-40.8 449,-40.8"/>
</g>
<g id="clust6" class="cluster">
<title>cluster_SalesDetailModule_imports</title>
<polygon fill="none" stroke="black" points="16,-40.8 16,-92.8 441,-92.8 441,-40.8 16,-40.8"/>
</g>
<!-- AddSaleComponent -->
<g id="node1" class="node">
<title>AddSaleComponent</title>
<polygon fill="#ffffb3" stroke="black" points="896.54,-84.8 767.46,-84.8 767.46,-48.8 896.54,-48.8 896.54,-84.8"/>
<text text-anchor="middle" x="832" y="-62.6" font-family="Times,serif" font-size="14.00">AddSaleComponent</text>
</g>
<!-- SalesDetailModule -->
<g id="node4" class="node">
<title>SalesDetailModule</title>
<polygon fill="#8dd3c7" stroke="black" points="516.8,-149.8 513.8,-153.8 492.8,-153.8 489.8,-149.8 393.2,-149.8 393.2,-113.8 516.8,-113.8 516.8,-149.8"/>
<text text-anchor="middle" x="455" y="-127.6" font-family="Times,serif" font-size="14.00">SalesDetailModule</text>
</g>
<!-- AddSaleComponent&#45;&gt;SalesDetailModule -->
<g id="edge1" class="edge">
<title>AddSaleComponent&#45;&gt;SalesDetailModule</title>
<path fill="none" stroke="black" d="M832,-85.08C832,-106.12 832,-137.8 832,-137.8 832,-137.8 526.83,-137.8 526.83,-137.8"/>
<polygon fill="black" stroke="black" points="526.83,-134.3 516.83,-137.8 526.83,-141.3 526.83,-134.3"/>
</g>
<!-- EditSaleComponent -->
<g id="node2" class="node">
<title>EditSaleComponent</title>
<polygon fill="#ffffb3" stroke="black" points="749.27,-84.8 620.73,-84.8 620.73,-48.8 749.27,-48.8 749.27,-84.8"/>
<text text-anchor="middle" x="685" y="-62.6" font-family="Times,serif" font-size="14.00">EditSaleComponent</text>
</g>
<!-- EditSaleComponent&#45;&gt;SalesDetailModule -->
<g id="edge2" class="edge">
<title>EditSaleComponent&#45;&gt;SalesDetailModule</title>
<path fill="none" stroke="black" d="M685,-84.82C685,-102.17 685,-125.8 685,-125.8 685,-125.8 526.94,-125.8 526.94,-125.8"/>
<polygon fill="black" stroke="black" points="526.94,-122.3 516.94,-125.8 526.94,-129.3 526.94,-122.3"/>
</g>
<!-- SalesDetailComponent -->
<g id="node3" class="node">
<title>SalesDetailComponent</title>
<polygon fill="#ffffb3" stroke="black" points="602.59,-84.8 457.41,-84.8 457.41,-48.8 602.59,-48.8 602.59,-84.8"/>
<text text-anchor="middle" x="530" y="-62.6" font-family="Times,serif" font-size="14.00">SalesDetailComponent</text>
</g>
<!-- SalesDetailComponent&#45;&gt;SalesDetailModule -->
<g id="edge3" class="edge">
<title>SalesDetailComponent&#45;&gt;SalesDetailModule</title>
<path fill="none" stroke="black" d="M487.05,-84.91C487.05,-84.91 487.05,-103.79 487.05,-103.79"/>
<polygon fill="black" stroke="black" points="483.55,-103.79 487.05,-113.79 490.55,-103.79 483.55,-103.79"/>
</g>
<!-- MaterialModule -->
<g id="node5" class="node">
<title>MaterialModule</title>
<polygon fill="#8dd3c7" stroke="black" points="433.47,-84.8 430.47,-88.8 409.47,-88.8 406.47,-84.8 326.53,-84.8 326.53,-48.8 433.47,-48.8 433.47,-84.8"/>
<text text-anchor="middle" x="380" y="-62.6" font-family="Times,serif" font-size="14.00">MaterialModule</text>
</g>
<!-- MaterialModule&#45;&gt;SalesDetailModule -->
<g id="edge4" class="edge">
<title>MaterialModule&#45;&gt;SalesDetailModule</title>
<path fill="none" stroke="black" d="M413.42,-84.91C413.42,-84.91 413.42,-103.79 413.42,-103.79"/>
<polygon fill="black" stroke="black" points="409.92,-103.79 413.42,-113.79 416.92,-103.79 409.92,-103.79"/>
</g>
<!-- SalesDetailRoutingModule -->
<g id="node6" class="node">
<title>SalesDetailRoutingModule</title>
<polygon fill="#8dd3c7" stroke="black" points="308.42,-84.8 305.42,-88.8 284.42,-88.8 281.42,-84.8 139.58,-84.8 139.58,-48.8 308.42,-48.8 308.42,-84.8"/>
<text text-anchor="middle" x="224" y="-62.6" font-family="Times,serif" font-size="14.00">SalesDetailRoutingModule</text>
</g>
<!-- SalesDetailRoutingModule&#45;&gt;SalesDetailModule -->
<g id="edge5" class="edge">
<title>SalesDetailRoutingModule&#45;&gt;SalesDetailModule</title>
<path fill="none" stroke="black" d="M224,-84.82C224,-102.17 224,-125.8 224,-125.8 224,-125.8 383.1,-125.8 383.1,-125.8"/>
<polygon fill="black" stroke="black" points="383.1,-129.3 393.1,-125.8 383.1,-122.3 383.1,-129.3"/>
</g>
<!-- SharedModule -->
<g id="node7" class="node">
<title>SharedModule</title>
<polygon fill="#8dd3c7" stroke="black" points="122.42,-84.8 119.42,-88.8 98.42,-88.8 95.42,-84.8 23.58,-84.8 23.58,-48.8 122.42,-48.8 122.42,-84.8"/>
<text text-anchor="middle" x="73" y="-62.6" font-family="Times,serif" font-size="14.00">SharedModule</text>
</g>
<!-- SharedModule&#45;&gt;SalesDetailModule -->
<g id="edge6" class="edge">
<title>SharedModule&#45;&gt;SalesDetailModule</title>
<path fill="none" stroke="black" d="M73,-85.08C73,-106.12 73,-137.8 73,-137.8 73,-137.8 383.2,-137.8 383.2,-137.8"/>
<polygon fill="black" stroke="black" points="383.2,-141.3 393.2,-137.8 383.2,-134.3 383.2,-141.3"/>
</g>
</g>
</svg>
